<svg width="127" height="118" viewBox="0 0 127 118" fill="none" xmlns="http://www.w3.org/2000/svg">
<g clip-path="url(#clip0)">
<path d="M126.82 0H0V18.12H8.81V117.77H26.93V63.08H54.1V117.77H72.22V63.08H99.38V117.77H117.5V18.12H126.83V0H126.82ZM26.92 18.12H54.1V44.96H26.92V18.12ZM72.22 18.12H99.38V44.96H72.22V18.12Z" fill="black"/>
</g>
<defs>
<clipPath id="clip0">
<rect width="126.82" height="117.76" fill="white"/>
</clipPath>
</defs>
</svg>
